LAB6B/sop.log
Command: /home/users9/jp581081/526LSP21/LAB6B/./simv -l sop.log
Chronologic VCS simulator copyright 1991-2017
Contains Synopsys proprietary information.
Compiler version N-2017.12-SP2-2_Full64; Runtime version N-2017.12-SP2-2_Full64;  Apr  3 18:39 2021
VCD+ Writer N-2017.12-SP2-2_Full64 Copyright (c) 1991-2017 by Synopsys Inc.
                   0:DATA_IN=xxxx R0=xxxx R1=xxxx R2=xxxx R3=xxxx m0=xxxxxxxx m1=xxxxxxxx m2=xxxxxxxx m3=xxxxxxxx C0=xxxx C1=xxxx C2=xxxx C3=xxxx 
                   0:DATA_IN=xxxx R0=xxxx R1=xxxx R2=xxxx R3=xxxx m0=xxxxxxxx m1=xxxxxxxx m2=xxxxxxxx m3=xxxxxxxx C0=xxxx C1=xxxx C2=xxxx C3=xxxx | OUT_sop1=xxxxxxxxxx OUT_sop2=xxxxxxxxxx
                  20:DATA_IN=xxxx R0=xxxx R1=xxxx R2=xxxx R3=xxxx m0=xxxxxxxx m1=xxxxxxxx m2=xxxxxxxx m3=xxxxxxxx C0=0000 C1=xxxx C2=xxxx C3=xxxx 
                  20:DATA_IN=xxxx R0=xxxx R1=xxxx R2=xxxx R3=xxxx m0=xxxxxxxx m1=xxxxxxxx m2=xxxxxxxx m3=xxxxxxxx C0=0000 C1=xxxx C2=xxxx C3=xxxx | OUT_sop1=xxxxxxxxxx OUT_sop2=xxxxxxxxxx
                  40:DATA_IN=xxxx R0=xxxx R1=xxxx R2=xxxx R3=xxxx m0=xxxxxxxx m1=xxxxxxxx m2=xxxxxxxx m3=xxxxxxxx C0=0000 C1=0000 C2=xxxx C3=xxxx 
                  40:DATA_IN=xxxx R0=xxxx R1=xxxx R2=xxxx R3=xxxx m0=xxxxxxxx m1=xxxxxxxx m2=xxxxxxxx m3=xxxxxxxx C0=0000 C1=0000 C2=xxxx C3=xxxx | OUT_sop1=xxxxxxxxxx OUT_sop2=xxxxxxxxxx
                  60:DATA_IN=xxxx R0=xxxx R1=xxxx R2=xxxx R3=xxxx m0=xxxxxxxx m1=xxxxxxxx m2=xxxxxxxx m3=xxxxxxxx C0=0000 C1=0000 C2=0000 C3=xxxx 
                  60:DATA_IN=xxxx R0=xxxx R1=xxxx R2=xxxx R3=xxxx m0=xxxxxxxx m1=xxxxxxxx m2=xxxxxxxx m3=xxxxxxxx C0=0000 C1=0000 C2=0000 C3=xxxx | OUT_sop1=xxxxxxxxxx OUT_sop2=xxxxxxxxxx
                  80:DATA_IN=xxxx R0=xxxx R1=xxxx R2=xxxx R3=xxxx m0=xxxxxxxx m1=xxxxxxxx m2=xxxxxxxx m3=xxxxxxxx C0=0000 C1=0000 C2=0000 C3=0000 
                  80:DATA_IN=xxxx R0=xxxx R1=xxxx R2=xxxx R3=xxxx m0=xxxxxxxx m1=xxxxxxxx m2=xxxxxxxx m3=xxxxxxxx C0=0000 C1=0000 C2=0000 C3=0000 | OUT_sop1=xxxxxxxxxx OUT_sop2=xxxxxxxxxx
                 100:DATA_IN=0000 R0=xxxx R1=xxxx R2=xxxx R3=xxxx m0=xxxxxxxx m1=xxxxxxxx m2=xxxxxxxx m3=xxxxxxxx C0=0000 C1=0000 C2=0000 C3=0000 
                 100:DATA_IN=0000 R0=xxxx R1=xxxx R2=xxxx R3=xxxx m0=xxxxxxxx m1=xxxxxxxx m2=xxxxxxxx m3=xxxxxxxx C0=0000 C1=0000 C2=0000 C3=0000 | OUT_sop1=xxxxxxxxxx OUT_sop2=xxxxxxxxxx
                 115:DATA_IN=0000 R0=0000 R1=xxxx R2=xxxx R3=xxxx m0=00000000 m1=xxxxxxxx m2=xxxxxxxx m3=xxxxxxxx C0=0000 C1=0000 C2=0000 C3=0000 
                 115:DATA_IN=0000 R0=0000 R1=xxxx R2=xxxx R3=xxxx m0=00000000 m1=xxxxxxxx m2=xxxxxxxx m3=xxxxxxxx C0=0000 C1=0000 C2=0000 C3=0000 | OUT_sop1=xxxxxxxxxx OUT_sop2=xxxxxxxxxx
                 120:DATA_IN=0001 R0=0000 R1=xxxx R2=xxxx R3=xxxx m0=00000000 m1=xxxxxxxx m2=xxxxxxxx m3=xxxxxxxx C0=0000 C1=0000 C2=0000 C3=0000 
                 120:DATA_IN=0001 R0=0000 R1=xxxx R2=xxxx R3=xxxx m0=00000000 m1=xxxxxxxx m2=xxxxxxxx m3=xxxxxxxx C0=0000 C1=0000 C2=0000 C3=0000 | OUT_sop1=xxxxxxxxxx OUT_sop2=xxxxxxxxxx
                 135:DATA_IN=0001 R0=0001 R1=0000 R2=xxxx R3=xxxx m0=00000000 m1=00000000 m2=xxxxxxxx m3=xxxxxxxx C0=0000 C1=0000 C2=0000 C3=0000 
                 135:DATA_IN=0001 R0=0001 R1=0000 R2=xxxx R3=xxxx m0=00000000 m1=00000000 m2=xxxxxxxx m3=xxxxxxxx C0=0000 C1=0000 C2=0000 C3=0000 | OUT_sop1=xxxxxxxxxx OUT_sop2=xxxxxxxxxx
                 140:DATA_IN=0010 R0=0001 R1=0000 R2=xxxx R3=xxxx m0=00000000 m1=00000000 m2=xxxxxxxx m3=xxxxxxxx C0=0000 C1=0000 C2=0000 C3=0000 
                 140:DATA_IN=0010 R0=0001 R1=0000 R2=xxxx R3=xxxx m0=00000000 m1=00000000 m2=xxxxxxxx m3=xxxxxxxx C0=0000 C1=0000 C2=0000 C3=0000 | OUT_sop1=xxxxxxxxxx OUT_sop2=xxxxxxxxxx
                 155:DATA_IN=0010 R0=0010 R1=0001 R2=0000 R3=xxxx m0=00000000 m1=00000000 m2=00000000 m3=xxxxxxxx C0=0000 C1=0000 C2=0000 C3=0000 
                 155:DATA_IN=0010 R0=0010 R1=0001 R2=0000 R3=xxxx m0=00000000 m1=00000000 m2=00000000 m3=xxxxxxxx C0=0000 C1=0000 C2=0000 C3=0000 | OUT_sop1=xxxxxxxxxx OUT_sop2=xxxxxxxxxx
                 160:DATA_IN=0011 R0=0010 R1=0001 R2=0000 R3=xxxx m0=00000000 m1=00000000 m2=00000000 m3=xxxxxxxx C0=0000 C1=0000 C2=0000 C3=0000 
                 160:DATA_IN=0011 R0=0010 R1=0001 R2=0000 R3=xxxx m0=00000000 m1=00000000 m2=00000000 m3=xxxxxxxx C0=0000 C1=0000 C2=0000 C3=0000 | OUT_sop1=xxxxxxxxxx OUT_sop2=xxxxxxxxxx
                 175:DATA_IN=0011 R0=0011 R1=0010 R2=0001 R3=0000 m0=00000000 m1=00000000 m2=00000000 m3=00000000 C0=0000 C1=0000 C2=0000 C3=0000 
                 175:DATA_IN=0011 R0=0011 R1=0010 R2=0001 R3=0000 m0=00000000 m1=00000000 m2=00000000 m3=00000000 C0=0000 C1=0000 C2=0000 C3=0000 | OUT_sop1=0000000000 OUT_sop2=0000000000
                 180:DATA_IN=0100 R0=0011 R1=0010 R2=0001 R3=0000 m0=00000000 m1=00000000 m2=00000000 m3=00000000 C0=0000 C1=0000 C2=0000 C3=0000 
                 180:DATA_IN=0100 R0=0011 R1=0010 R2=0001 R3=0000 m0=00000000 m1=00000000 m2=00000000 m3=00000000 C0=0000 C1=0000 C2=0000 C3=0000 | OUT_sop1=0000000000 OUT_sop2=0000000000
                 195:DATA_IN=0100 R0=0100 R1=0011 R2=0010 R3=0001 m0=00000000 m1=00000000 m2=00000000 m3=00000000 C0=0000 C1=0000 C2=0000 C3=0000 
                 195:DATA_IN=0100 R0=0100 R1=0011 R2=0010 R3=0001 m0=00000000 m1=00000000 m2=00000000 m3=00000000 C0=0000 C1=0000 C2=0000 C3=0000 | OUT_sop1=0000000000 OUT_sop2=0000000000
                 200:DATA_IN=0101 R0=0100 R1=0011 R2=0010 R3=0001 m0=00000000 m1=00000000 m2=00000000 m3=00000000 C0=0000 C1=0000 C2=0000 C3=0000 
                 200:DATA_IN=0101 R0=0100 R1=0011 R2=0010 R3=0001 m0=00000000 m1=00000000 m2=00000000 m3=00000000 C0=0000 C1=0000 C2=0000 C3=0000 | OUT_sop1=0000000000 OUT_sop2=0000000000
                 215:DATA_IN=0101 R0=0101 R1=0100 R2=0011 R3=0010 m0=00000000 m1=00000000 m2=00000000 m3=00000000 C0=0000 C1=0000 C2=0000 C3=0000 
                 215:DATA_IN=0101 R0=0101 R1=0100 R2=0011 R3=0010 m0=00000000 m1=00000000 m2=00000000 m3=00000000 C0=0000 C1=0000 C2=0000 C3=0000 | OUT_sop1=0000000000 OUT_sop2=0000000000
                 220:DATA_IN=0110 R0=0101 R1=0100 R2=0011 R3=0010 m0=00000000 m1=00000000 m2=00000000 m3=00000000 C0=0000 C1=0000 C2=0000 C3=0000 
                 220:DATA_IN=0110 R0=0101 R1=0100 R2=0011 R3=0010 m0=00000000 m1=00000000 m2=00000000 m3=00000000 C0=0000 C1=0000 C2=0000 C3=0000 | OUT_sop1=0000000000 OUT_sop2=0000000000
                 235:DATA_IN=0110 R0=0110 R1=0101 R2=0100 R3=0011 m0=00000000 m1=00000000 m2=00000000 m3=00000000 C0=0000 C1=0000 C2=0000 C3=0000 
                 235:DATA_IN=0110 R0=0110 R1=0101 R2=0100 R3=0011 m0=00000000 m1=00000000 m2=00000000 m3=00000000 C0=0000 C1=0000 C2=0000 C3=0000 | OUT_sop1=0000000000 OUT_sop2=0000000000
                 240:DATA_IN=0111 R0=0110 R1=0101 R2=0100 R3=0011 m0=00000000 m1=00000000 m2=00000000 m3=00000000 C0=0000 C1=0000 C2=0000 C3=0000 
                 240:DATA_IN=0111 R0=0110 R1=0101 R2=0100 R3=0011 m0=00000000 m1=00000000 m2=00000000 m3=00000000 C0=0000 C1=0000 C2=0000 C3=0000 | OUT_sop1=0000000000 OUT_sop2=0000000000
                 255:DATA_IN=0111 R0=0111 R1=0110 R2=0101 R3=0100 m0=00000000 m1=00000000 m2=00000000 m3=00000000 C0=0000 C1=0000 C2=0000 C3=0000 
                 255:DATA_IN=0111 R0=0111 R1=0110 R2=0101 R3=0100 m0=00000000 m1=00000000 m2=00000000 m3=00000000 C0=0000 C1=0000 C2=0000 C3=0000 | OUT_sop1=0000000000 OUT_sop2=0000000000
                 260:DATA_IN=1000 R0=0111 R1=0110 R2=0101 R3=0100 m0=00000000 m1=00000000 m2=00000000 m3=00000000 C0=0000 C1=0000 C2=0000 C3=0000 
                 260:DATA_IN=1000 R0=0111 R1=0110 R2=0101 R3=0100 m0=00000000 m1=00000000 m2=00000000 m3=00000000 C0=0000 C1=0000 C2=0000 C3=0000 | OUT_sop1=0000000000 OUT_sop2=0000000000
                 275:DATA_IN=1000 R0=1000 R1=0111 R2=0110 R3=0101 m0=00000000 m1=00000000 m2=00000000 m3=00000000 C0=0000 C1=0000 C2=0000 C3=0000 
                 275:DATA_IN=1000 R0=1000 R1=0111 R2=0110 R3=0101 m0=00000000 m1=00000000 m2=00000000 m3=00000000 C0=0000 C1=0000 C2=0000 C3=0000 | OUT_sop1=0000000000 OUT_sop2=0000000000
                 280:DATA_IN=1001 R0=1000 R1=0111 R2=0110 R3=0101 m0=00000000 m1=00000000 m2=00000000 m3=00000000 C0=0000 C1=0000 C2=0000 C3=0000 
                 280:DATA_IN=1001 R0=1000 R1=0111 R2=0110 R3=0101 m0=00000000 m1=00000000 m2=00000000 m3=00000000 C0=0000 C1=0000 C2=0000 C3=0000 | OUT_sop1=0000000000 OUT_sop2=0000000000
                 295:DATA_IN=1001 R0=1001 R1=1000 R2=0111 R3=0110 m0=00000000 m1=00000000 m2=00000000 m3=00000000 C0=0000 C1=0000 C2=0000 C3=0000 
                 295:DATA_IN=1001 R0=1001 R1=1000 R2=0111 R3=0110 m0=00000000 m1=00000000 m2=00000000 m3=00000000 C0=0000 C1=0000 C2=0000 C3=0000 | OUT_sop1=0000000000 OUT_sop2=0000000000
                 300:DATA_IN=1010 R0=1001 R1=1000 R2=0111 R3=0110 m0=00000000 m1=00000000 m2=00000000 m3=00000000 C0=0000 C1=0000 C2=0000 C3=0000 
                 300:DATA_IN=1010 R0=1001 R1=1000 R2=0111 R3=0110 m0=00000000 m1=00000000 m2=00000000 m3=00000000 C0=0000 C1=0000 C2=0000 C3=0000 | OUT_sop1=0000000000 OUT_sop2=0000000000
                 315:DATA_IN=1010 R0=1010 R1=1001 R2=1000 R3=0111 m0=00000000 m1=00000000 m2=00000000 m3=00000000 C0=0000 C1=0000 C2=0000 C3=0000 
                 315:DATA_IN=1010 R0=1010 R1=1001 R2=1000 R3=0111 m0=00000000 m1=00000000 m2=00000000 m3=00000000 C0=0000 C1=0000 C2=0000 C3=0000 | OUT_sop1=0000000000 OUT_sop2=0000000000
                 320:DATA_IN=1011 R0=1010 R1=1001 R2=1000 R3=0111 m0=00000000 m1=00000000 m2=00000000 m3=00000000 C0=0000 C1=0000 C2=0000 C3=0000 
                 320:DATA_IN=1011 R0=1010 R1=1001 R2=1000 R3=0111 m0=00000000 m1=00000000 m2=00000000 m3=00000000 C0=0000 C1=0000 C2=0000 C3=0000 | OUT_sop1=0000000000 OUT_sop2=0000000000
                 335:DATA_IN=1011 R0=1011 R1=1010 R2=1001 R3=1000 m0=00000000 m1=00000000 m2=00000000 m3=00000000 C0=0000 C1=0000 C2=0000 C3=0000 
                 335:DATA_IN=1011 R0=1011 R1=1010 R2=1001 R3=1000 m0=00000000 m1=00000000 m2=00000000 m3=00000000 C0=0000 C1=0000 C2=0000 C3=0000 | OUT_sop1=0000000000 OUT_sop2=0000000000
            22369380:DATA_IN=0100 R0=0011 R1=0010 R2=0001 R3=0000 m0=00101101 m1=00011110 m2=00001111 m3=00000000 C0=1111 C1=1111 C2=1111 C3=1111 
            22369380:DATA_IN=0100 R0=0011 R1=0010 R2=0001 R3=0000 m0=00101101 m1=00011110 m2=00001111 m3=00000000 C0=1111 C1=1111 C2=1111 C3=1111 | OUT_sop1=0001011010 OUT_sop2=0001011010
            22369395:DATA_IN=0100 R0=0100 R1=0011 R2=0010 R3=0001 m0=00111100 m1=00101101 m2=00011110 m3=00001111 C0=1111 C1=1111 C2=1111 C3=1111 
            22369395:DATA_IN=0100 R0=0100 R1=0011 R2=0010 R3=0001 m0=00111100 m1=00101101 m2=00011110 m3=00001111 C0=1111 C1=1111 C2=1111 C3=1111 | OUT_sop1=0010010110 OUT_sop2=0010010110
            22369400:DATA_IN=0101 R0=0100 R1=0011 R2=0010 R3=0001 m0=00111100 m1=00101101 m2=00011110 m3=00001111 C0=1111 C1=1111 C2=1111 C3=1111 
            22369400:DATA_IN=0101 R0=0100 R1=0011 R2=0010 R3=0001 m0=00111100 m1=00101101 m2=00011110 m3=00001111 C0=1111 C1=1111 C2=1111 C3=1111 | OUT_sop1=0010010110 OUT_sop2=0010010110
            22369415:DATA_IN=0101 R0=0101 R1=0100 R2=0011 R3=0010 m0=01001011 m1=00111100 m2=00101101 m3=00011110 C0=1111 C1=1111 C2=1111 C3=1111 
            22369415:DATA_IN=0101 R0=0101 R1=0100 R2=0011 R3=0010 m0=01001011 m1=00111100 m2=00101101 m3=00011110 C0=1111 C1=1111 C2=1111 C3=1111 | OUT_sop1=0011010010 OUT_sop2=0011010010
            22369420:DATA_IN=0110 R0=0101 R1=0100 R2=0011 R3=0010 m0=01001011 m1=00111100 m2=00101101 m3=00011110 C0=1111 C1=1111 C2=1111 C3=1111 
            22369420:DATA_IN=0110 R0=0101 R1=0100 R2=0011 R3=0010 m0=01001011 m1=00111100 m2=00101101 m3=00011110 C0=1111 C1=1111 C2=1111 C3=1111 | OUT_sop1=0011010010 OUT_sop2=0011010010
            22369435:DATA_IN=0110 R0=0110 R1=0101 R2=0100 R3=0011 m0=01011010 m1=01001011 m2=00111100 m3=00101101 C0=1111 C1=1111 C2=1111 C3=1111 
            22369435:DATA_IN=0110 R0=0110 R1=0101 R2=0100 R3=0011 m0=01011010 m1=01001011 m2=00111100 m3=00101101 C0=1111 C1=1111 C2=1111 C3=1111 | OUT_sop1=0100001110 OUT_sop2=0100001110
            22369440:DATA_IN=0111 R0=0110 R1=0101 R2=0100 R3=0011 m0=01011010 m1=01001011 m2=00111100 m3=00101101 C0=1111 C1=1111 C2=1111 C3=1111 
            22369440:DATA_IN=0111 R0=0110 R1=0101 R2=0100 R3=0011 m0=01011010 m1=01001011 m2=00111100 m3=00101101 C0=1111 C1=1111 C2=1111 C3=1111 | OUT_sop1=0100001110 OUT_sop2=0100001110
            22369455:DATA_IN=0111 R0=0111 R1=0110 R2=0101 R3=0100 m0=01101001 m1=01011010 m2=01001011 m3=00111100 C0=1111 C1=1111 C2=1111 C3=1111 
            22369455:DATA_IN=0111 R0=0111 R1=0110 R2=0101 R3=0100 m0=01101001 m1=01011010 m2=01001011 m3=00111100 C0=1111 C1=1111 C2=1111 C3=1111 | OUT_sop1=0101001010 OUT_sop2=0101001010
            22369460:DATA_IN=1000 R0=0111 R1=0110 R2=0101 R3=0100 m0=01101001 m1=01011010 m2=01001011 m3=00111100 C0=1111 C1=1111 C2=1111 C3=1111 
            22369460:DATA_IN=1000 R0=0111 R1=0110 R2=0101 R3=0100 m0=01101001 m1=01011010 m2=01001011 m3=00111100 C0=1111 C1=1111 C2=1111 C3=1111 | OUT_sop1=0101001010 OUT_sop2=0101001010
            22369475:DATA_IN=1000 R0=1000 R1=0111 R2=0110 R3=0101 m0=01111000 m1=01101001 m2=01011010 m3=01001011 C0=1111 C1=1111 C2=1111 C3=1111 
            22369475:DATA_IN=1000 R0=1000 R1=0111 R2=0110 R3=0101 m0=01111000 m1=01101001 m2=01011010 m3=01001011 C0=1111 C1=1111 C2=1111 C3=1111 | OUT_sop1=0110000110 OUT_sop2=0110000110
            22369480:DATA_IN=1001 R0=1000 R1=0111 R2=0110 R3=0101 m0=01111000 m1=01101001 m2=01011010 m3=01001011 C0=1111 C1=1111 C2=1111 C3=1111 
            22369480:DATA_IN=1001 R0=1000 R1=0111 R2=0110 R3=0101 m0=01111000 m1=01101001 m2=01011010 m3=01001011 C0=1111 C1=1111 C2=1111 C3=1111 | OUT_sop1=0110000110 OUT_sop2=0110000110
            22369495:DATA_IN=1001 R0=1001 R1=1000 R2=0111 R3=0110 m0=10000111 m1=01111000 m2=01101001 m3=01011010 C0=1111 C1=1111 C2=1111 C3=1111 
            22369495:DATA_IN=1001 R0=1001 R1=1000 R2=0111 R3=0110 m0=10000111 m1=01111000 m2=01101001 m3=01011010 C0=1111 C1=1111 C2=1111 C3=1111 | OUT_sop1=0111000010 OUT_sop2=0111000010
            22369500:DATA_IN=1010 R0=1001 R1=1000 R2=0111 R3=0110 m0=10000111 m1=01111000 m2=01101001 m3=01011010 C0=1111 C1=1111 C2=1111 C3=1111 
            22369500:DATA_IN=1010 R0=1001 R1=1000 R2=0111 R3=0110 m0=10000111 m1=01111000 m2=01101001 m3=01011010 C0=1111 C1=1111 C2=1111 C3=1111 | OUT_sop1=0111000010 OUT_sop2=0111000010
            22369515:DATA_IN=1010 R0=1010 R1=1001 R2=1000 R3=0111 m0=10010110 m1=10000111 m2=01111000 m3=01101001 C0=1111 C1=1111 C2=1111 C3=1111 
            22369515:DATA_IN=1010 R0=1010 R1=1001 R2=1000 R3=0111 m0=10010110 m1=10000111 m2=01111000 m3=01101001 C0=1111 C1=1111 C2=1111 C3=1111 | OUT_sop1=0111111110 OUT_sop2=0111111110
            22369520:DATA_IN=1011 R0=1010 R1=1001 R2=1000 R3=0111 m0=10010110 m1=10000111 m2=01111000 m3=01101001 C0=1111 C1=1111 C2=1111 C3=1111 
            22369520:DATA_IN=1011 R0=1010 R1=1001 R2=1000 R3=0111 m0=10010110 m1=10000111 m2=01111000 m3=01101001 C0=1111 C1=1111 C2=1111 C3=1111 | OUT_sop1=0111111110 OUT_sop2=0111111110
            22369535:DATA_IN=1011 R0=1011 R1=1010 R2=1001 R3=1000 m0=10100101 m1=10010110 m2=10000111 m3=01111000 C0=1111 C1=1111 C2=1111 C3=1111 
            22369535:DATA_IN=1011 R0=1011 R1=1010 R2=1001 R3=1000 m0=10100101 m1=10010110 m2=10000111 m3=01111000 C0=1111 C1=1111 C2=1111 C3=1111 | OUT_sop1=1000111010 OUT_sop2=1000111010
            22369540:DATA_IN=1100 R0=1011 R1=1010 R2=1001 R3=1000 m0=10100101 m1=10010110 m2=10000111 m3=01111000 C0=1111 C1=1111 C2=1111 C3=1111 
            22369540:DATA_IN=1100 R0=1011 R1=1010 R2=1001 R3=1000 m0=10100101 m1=10010110 m2=10000111 m3=01111000 C0=1111 C1=1111 C2=1111 C3=1111 | OUT_sop1=1000111010 OUT_sop2=1000111010
            22369555:DATA_IN=1100 R0=1100 R1=1011 R2=1010 R3=1001 m0=10110100 m1=10100101 m2=10010110 m3=10000111 C0=1111 C1=1111 C2=1111 C3=1111 
            22369555:DATA_IN=1100 R0=1100 R1=1011 R2=1010 R3=1001 m0=10110100 m1=10100101 m2=10010110 m3=10000111 C0=1111 C1=1111 C2=1111 C3=1111 | OUT_sop1=1001110110 OUT_sop2=1001110110
            22369560:DATA_IN=1101 R0=1100 R1=1011 R2=1010 R3=1001 m0=10110100 m1=10100101 m2=10010110 m3=10000111 C0=1111 C1=1111 C2=1111 C3=1111 
            22369560:DATA_IN=1101 R0=1100 R1=1011 R2=1010 R3=1001 m0=10110100 m1=10100101 m2=10010110 m3=10000111 C0=1111 C1=1111 C2=1111 C3=1111 | OUT_sop1=1001110110 OUT_sop2=1001110110
            22369575:DATA_IN=1101 R0=1101 R1=1100 R2=1011 R3=1010 m0=11000011 m1=10110100 m2=10100101 m3=10010110 C0=1111 C1=1111 C2=1111 C3=1111 
            22369575:DATA_IN=1101 R0=1101 R1=1100 R2=1011 R3=1010 m0=11000011 m1=10110100 m2=10100101 m3=10010110 C0=1111 C1=1111 C2=1111 C3=1111 | OUT_sop1=1010110010 OUT_sop2=1010110010
            22369580:DATA_IN=1110 R0=1101 R1=1100 R2=1011 R3=1010 m0=11000011 m1=10110100 m2=10100101 m3=10010110 C0=1111 C1=1111 C2=1111 C3=1111 
            22369580:DATA_IN=1110 R0=1101 R1=1100 R2=1011 R3=1010 m0=11000011 m1=10110100 m2=10100101 m3=10010110 C0=1111 C1=1111 C2=1111 C3=1111 | OUT_sop1=1010110010 OUT_sop2=1010110010
            22369595:DATA_IN=1110 R0=1110 R1=1101 R2=1100 R3=1011 m0=11010010 m1=11000011 m2=10110100 m3=10100101 C0=1111 C1=1111 C2=1111 C3=1111 
            22369595:DATA_IN=1110 R0=1110 R1=1101 R2=1100 R3=1011 m0=11010010 m1=11000011 m2=10110100 m3=10100101 C0=1111 C1=1111 C2=1111 C3=1111 | OUT_sop1=1011101110 OUT_sop2=1011101110
            22369600:DATA_IN=1111 R0=1110 R1=1101 R2=1100 R3=1011 m0=11010010 m1=11000011 m2=10110100 m3=10100101 C0=1111 C1=1111 C2=1111 C3=1111 
            22369600:DATA_IN=1111 R0=1110 R1=1101 R2=1100 R3=1011 m0=11010010 m1=11000011 m2=10110100 m3=10100101 C0=1111 C1=1111 C2=1111 C3=1111 | OUT_sop1=1011101110 OUT_sop2=1011101110
The test was successful
$finish called from file "sop_tb.sv", line 98.
$finish at simulation time             22369610
           V C S   S i m u l a t i o n   R e p o r t 
Time: 22369610 ns
CPU Time:      3.150 seconds;       Data structure size:   0.0Mb
Sat Apr  3 18:40:01 2021
