LAB6B/sop_error.log
Command: /home/users9/jp581081/526LSP21/LAB6B/./simv -l sop_error.log
Chronologic VCS simulator copyright 1991-2017
Contains Synopsys proprietary information.
Compiler version N-2017.12-SP2-2_Full64; Runtime version N-2017.12-SP2-2_Full64;  Apr  3 18:40 2021
VCD+ Writer N-2017.12-SP2-2_Full64 Copyright (c) 1991-2017 by Synopsys Inc.
                   0:DATA_IN=xxxx R0=xxxx R1=xxxx R2=xxxx R3=xxxx m0=xxxxxxxx m1=xxxxxxxx m2=xxxxxxxx m3=xxxxxxxx C0=xxxx C1=xxxx C2=xxxx C3=xxxx 
                   0:DATA_IN=xxxx R0=xxxx R1=xxxx R2=xxxx R3=xxxx m0=xxxxxxxx m1=xxxxxxxx m2=xxxxxxxx m3=xxxxxxxx C0=xxxx C1=xxxx C2=xxxx C3=xxxx | OUT_sop1=xxxxxxxxxx OUT_sop2=xxxxxxxxxx
                  20:DATA_IN=xxxx R0=xxxx R1=xxxx R2=xxxx R3=xxxx m0=xxxxxxxx m1=xxxxxxxx m2=xxxxxxxx m3=xxxxxxxx C0=0000 C1=xxxx C2=xxxx C3=xxxx 
                  20:DATA_IN=xxxx R0=xxxx R1=xxxx R2=xxxx R3=xxxx m0=xxxxxxxx m1=xxxxxxxx m2=xxxxxxxx m3=xxxxxxxx C0=0000 C1=xxxx C2=xxxx C3=xxxx | OUT_sop1=xxxxxxxxxx OUT_sop2=xxxxxxxxxx
                  40:DATA_IN=xxxx R0=xxxx R1=xxxx R2=xxxx R3=xxxx m0=xxxxxxxx m1=xxxxxxxx m2=xxxxxxxx m3=xxxxxxxx C0=0000 C1=0000 C2=xxxx C3=xxxx 
                  40:DATA_IN=xxxx R0=xxxx R1=xxxx R2=xxxx R3=xxxx m0=xxxxxxxx m1=xxxxxxxx m2=xxxxxxxx m3=xxxxxxxx C0=0000 C1=0000 C2=xxxx C3=xxxx | OUT_sop1=xxxxxxxxxx OUT_sop2=xxxxxxxxxx
                  60:DATA_IN=xxxx R0=xxxx R1=xxxx R2=xxxx R3=xxxx m0=xxxxxxxx m1=xxxxxxxx m2=xxxxxxxx m3=xxxxxxxx C0=0000 C1=0000 C2=0000 C3=xxxx 
                  60:DATA_IN=xxxx R0=xxxx R1=xxxx R2=xxxx R3=xxxx m0=xxxxxxxx m1=xxxxxxxx m2=xxxxxxxx m3=xxxxxxxx C0=0000 C1=0000 C2=0000 C3=xxxx | OUT_sop1=xxxxxxxxxx OUT_sop2=xxxxxxxxxx
                  80:DATA_IN=xxxx R0=xxxx R1=xxxx R2=xxxx R3=xxxx m0=xxxxxxxx m1=xxxxxxxx m2=xxxxxxxx m3=xxxxxxxx C0=0000 C1=0000 C2=0000 C3=0000 
                  80:DATA_IN=xxxx R0=xxxx R1=xxxx R2=xxxx R3=xxxx m0=xxxxxxxx m1=xxxxxxxx m2=xxxxxxxx m3=xxxxxxxx C0=0000 C1=0000 C2=0000 C3=0000 | OUT_sop1=xxxxxxxxxx OUT_sop2=xxxxxxxxxx
                 100:DATA_IN=0000 R0=xxxx R1=xxxx R2=xxxx R3=xxxx m0=xxxxxxxx m1=xxxxxxxx m2=xxxxxxxx m3=xxxxxxxx C0=0000 C1=0000 C2=0000 C3=0000 
                 100:DATA_IN=0000 R0=xxxx R1=xxxx R2=xxxx R3=xxxx m0=xxxxxxxx m1=xxxxxxxx m2=xxxxxxxx m3=xxxxxxxx C0=0000 C1=0000 C2=0000 C3=0000 | OUT_sop1=xxxxxxxxxx OUT_sop2=xxxxxxxxxx
                 115:DATA_IN=0000 R0=0000 R1=xxxx R2=xxxx R3=xxxx m0=00000000 m1=xxxxxxxx m2=xxxxxxxx m3=xxxxxxxx C0=0000 C1=0000 C2=0000 C3=0000 
                 115:DATA_IN=0000 R0=0000 R1=xxxx R2=xxxx R3=xxxx m0=00000000 m1=xxxxxxxx m2=xxxxxxxx m3=xxxxxxxx C0=0000 C1=0000 C2=0000 C3=0000 | OUT_sop1=xxxxxxxxxx OUT_sop2=xxxxxxxxxx
                 120:DATA_IN=0001 R0=0000 R1=xxxx R2=xxxx R3=xxxx m0=00000000 m1=xxxxxxxx m2=xxxxxxxx m3=xxxxxxxx C0=0000 C1=0000 C2=0000 C3=0000 
                 120:DATA_IN=0001 R0=0000 R1=xxxx R2=xxxx R3=xxxx m0=00000000 m1=xxxxxxxx m2=xxxxxxxx m3=xxxxxxxx C0=0000 C1=0000 C2=0000 C3=0000 | OUT_sop1=xxxxxxxxxx OUT_sop2=xxxxxxxxxx
                 135:DATA_IN=0001 R0=0001 R1=0000 R2=xxxx R3=xxxx m0=00000000 m1=00000000 m2=xxxxxxxx m3=xxxxxxxx C0=0000 C1=0000 C2=0000 C3=0000 
                 135:DATA_IN=0001 R0=0001 R1=0000 R2=xxxx R3=xxxx m0=00000000 m1=00000000 m2=xxxxxxxx m3=xxxxxxxx C0=0000 C1=0000 C2=0000 C3=0000 | OUT_sop1=xxxxxxxxxx OUT_sop2=xxxxxxxxxx
                 140:DATA_IN=0010 R0=0001 R1=0000 R2=xxxx R3=xxxx m0=00000000 m1=00000000 m2=xxxxxxxx m3=xxxxxxxx C0=0000 C1=0000 C2=0000 C3=0000 
                 140:DATA_IN=0010 R0=0001 R1=0000 R2=xxxx R3=xxxx m0=00000000 m1=00000000 m2=xxxxxxxx m3=xxxxxxxx C0=0000 C1=0000 C2=0000 C3=0000 | OUT_sop1=xxxxxxxxxx OUT_sop2=xxxxxxxxxx
                 155:DATA_IN=0010 R0=0010 R1=0001 R2=0000 R3=xxxx m0=00000000 m1=00000000 m2=00000000 m3=xxxxxxxx C0=0000 C1=0000 C2=0000 C3=0000 
                 155:DATA_IN=0010 R0=0010 R1=0001 R2=0000 R3=xxxx m0=00000000 m1=00000000 m2=00000000 m3=xxxxxxxx C0=0000 C1=0000 C2=0000 C3=0000 | OUT_sop1=xxxxxxxxxx OUT_sop2=xxxxxxxxxx
                 160:DATA_IN=0011 R0=0010 R1=0001 R2=0000 R3=xxxx m0=00000000 m1=00000000 m2=00000000 m3=xxxxxxxx C0=0000 C1=0000 C2=0000 C3=0000 
                 160:DATA_IN=0011 R0=0010 R1=0001 R2=0000 R3=xxxx m0=00000000 m1=00000000 m2=00000000 m3=xxxxxxxx C0=0000 C1=0000 C2=0000 C3=0000 | OUT_sop1=xxxxxxxxxx OUT_sop2=xxxxxxxxxx
                 175:DATA_IN=0011 R0=0011 R1=0010 R2=0001 R3=0000 m0=00000000 m1=00000000 m2=00000000 m3=00000000 C0=0000 C1=0000 C2=0000 C3=0000 
                 175:DATA_IN=0011 R0=0011 R1=0010 R2=0001 R3=0000 m0=00000000 m1=00000000 m2=00000000 m3=00000000 C0=0000 C1=0000 C2=0000 C3=0000 | OUT_sop1=0000000000 OUT_sop2=0000000000
                 180:DATA_IN=0100 R0=0011 R1=0010 R2=0001 R3=0000 m0=00000000 m1=00000000 m2=00000000 m3=00000000 C0=0000 C1=0000 C2=0000 C3=0000 
                 180:DATA_IN=0100 R0=0011 R1=0010 R2=0001 R3=0000 m0=00000000 m1=00000000 m2=00000000 m3=00000000 C0=0000 C1=0000 C2=0000 C3=0000 | OUT_sop1=0000000000 OUT_sop2=0000000000
                 195:DATA_IN=0100 R0=0100 R1=0011 R2=0010 R3=0001 m0=00000000 m1=00000000 m2=00000000 m3=00000000 C0=0000 C1=0000 C2=0000 C3=0000 
                 195:DATA_IN=0100 R0=0100 R1=0011 R2=0010 R3=0001 m0=00000000 m1=00000000 m2=00000000 m3=00000000 C0=0000 C1=0000 C2=0000 C3=0000 | OUT_sop1=0000000000 OUT_sop2=0000000000
                 200:DATA_IN=0101 R0=0100 R1=0011 R2=0010 R3=0001 m0=00000000 m1=00000000 m2=00000000 m3=00000000 C0=0000 C1=0000 C2=0000 C3=0000 
                 200:DATA_IN=0101 R0=0100 R1=0011 R2=0010 R3=0001 m0=00000000 m1=00000000 m2=00000000 m3=00000000 C0=0000 C1=0000 C2=0000 C3=0000 | OUT_sop1=0000000000 OUT_sop2=0000000000
                 215:DATA_IN=0101 R0=0101 R1=0100 R2=0011 R3=0010 m0=00000000 m1=00000000 m2=00000000 m3=00000000 C0=0000 C1=0000 C2=0000 C3=0000 
                 215:DATA_IN=0101 R0=0101 R1=0100 R2=0011 R3=0010 m0=00000000 m1=00000000 m2=00000000 m3=00000000 C0=0000 C1=0000 C2=0000 C3=0000 | OUT_sop1=0000000000 OUT_sop2=0000000000
                 220:DATA_IN=0110 R0=0101 R1=0100 R2=0011 R3=0010 m0=00000000 m1=00000000 m2=00000000 m3=00000000 C0=0000 C1=0000 C2=0000 C3=0000 
                 220:DATA_IN=0110 R0=0101 R1=0100 R2=0011 R3=0010 m0=00000000 m1=00000000 m2=00000000 m3=00000000 C0=0000 C1=0000 C2=0000 C3=0000 | OUT_sop1=0000000000 OUT_sop2=0000000000
                 235:DATA_IN=0110 R0=0110 R1=0101 R2=0100 R3=0011 m0=00000000 m1=00000000 m2=00000000 m3=00000000 C0=0000 C1=0000 C2=0000 C3=0000 
                 235:DATA_IN=0110 R0=0110 R1=0101 R2=0100 R3=0011 m0=00000000 m1=00000000 m2=00000000 m3=00000000 C0=0000 C1=0000 C2=0000 C3=0000 | OUT_sop1=0000000000 OUT_sop2=0000000000
                 240:DATA_IN=0111 R0=0110 R1=0101 R2=0100 R3=0011 m0=00000000 m1=00000000 m2=00000000 m3=00000000 C0=0000 C1=0000 C2=0000 C3=0000 
                 240:DATA_IN=0111 R0=0110 R1=0101 R2=0100 R3=0011 m0=00000000 m1=00000000 m2=00000000 m3=00000000 C0=0000 C1=0000 C2=0000 C3=0000 | OUT_sop1=0000000000 OUT_sop2=0000000000
                 255:DATA_IN=0111 R0=0111 R1=0110 R2=0101 R3=0100 m0=00000000 m1=00000000 m2=00000000 m3=00000000 C0=0000 C1=0000 C2=0000 C3=0000 
                 255:DATA_IN=0111 R0=0111 R1=0110 R2=0101 R3=0100 m0=00000000 m1=00000000 m2=00000000 m3=00000000 C0=0000 C1=0000 C2=0000 C3=0000 | OUT_sop1=0000000000 OUT_sop2=0000000000
                 260:DATA_IN=1000 R0=0111 R1=0110 R2=0101 R3=0100 m0=00000000 m1=00000000 m2=00000000 m3=00000000 C0=0000 C1=0000 C2=0000 C3=0000 
                 260:DATA_IN=1000 R0=0111 R1=0110 R2=0101 R3=0100 m0=00000000 m1=00000000 m2=00000000 m3=00000000 C0=0000 C1=0000 C2=0000 C3=0000 | OUT_sop1=0000000000 OUT_sop2=0000000000
                 275:DATA_IN=1000 R0=1000 R1=0111 R2=0110 R3=0101 m0=00000000 m1=00000000 m2=00000000 m3=00000000 C0=0000 C1=0000 C2=0000 C3=0000 
                 275:DATA_IN=1000 R0=1000 R1=0111 R2=0110 R3=0101 m0=00000000 m1=00000000 m2=00000000 m3=00000000 C0=0000 C1=0000 C2=0000 C3=0000 | OUT_sop1=0000000000 OUT_sop2=0000000000
                 280:DATA_IN=1001 R0=1000 R1=0111 R2=0110 R3=0101 m0=00000000 m1=00000000 m2=00000000 m3=00000000 C0=0000 C1=0000 C2=0000 C3=0000 
                 280:DATA_IN=1001 R0=1000 R1=0111 R2=0110 R3=0101 m0=00000000 m1=00000000 m2=00000000 m3=00000000 C0=0000 C1=0000 C2=0000 C3=0000 | OUT_sop1=0000000000 OUT_sop2=0000000000
                 295:DATA_IN=1001 R0=1001 R1=1000 R2=0111 R3=0110 m0=00000000 m1=00000000 m2=00000000 m3=00000000 C0=0000 C1=0000 C2=0000 C3=0000 
                 295:DATA_IN=1001 R0=1001 R1=1000 R2=0111 R3=0110 m0=00000000 m1=00000000 m2=00000000 m3=00000000 C0=0000 C1=0000 C2=0000 C3=0000 | OUT_sop1=0000000000 OUT_sop2=0000000000
                 300:DATA_IN=1010 R0=1001 R1=1000 R2=0111 R3=0110 m0=00000000 m1=00000000 m2=00000000 m3=00000000 C0=0000 C1=0000 C2=0000 C3=0000 
                 300:DATA_IN=1010 R0=1001 R1=1000 R2=0111 R3=0110 m0=00000000 m1=00000000 m2=00000000 m3=00000000 C0=0000 C1=0000 C2=0000 C3=0000 | OUT_sop1=0000000000 OUT_sop2=0000000000
                 315:DATA_IN=1010 R0=1010 R1=1001 R2=1000 R3=0111 m0=00000000 m1=00000000 m2=00000000 m3=00000000 C0=0000 C1=0000 C2=0000 C3=0000 
                 315:DATA_IN=1010 R0=1010 R1=1001 R2=1000 R3=0111 m0=00000000 m1=00000000 m2=00000000 m3=00000000 C0=0000 C1=0000 C2=0000 C3=0000 | OUT_sop1=0000000000 OUT_sop2=0000000000
                 320:DATA_IN=1011 R0=1010 R1=1001 R2=1000 R3=0111 m0=00000000 m1=00000000 m2=00000000 m3=00000000 C0=0000 C1=0000 C2=0000 C3=0000 
                 320:DATA_IN=1011 R0=1010 R1=1001 R2=1000 R3=0111 m0=00000000 m1=00000000 m2=00000000 m3=00000000 C0=0000 C1=0000 C2=0000 C3=0000 | OUT_sop1=0000000000 OUT_sop2=0000000000
                 335:DATA_IN=1011 R0=1011 R1=1010 R2=1001 R3=1000 m0=00000000 m1=00000000 m2=00000000 m3=00000000 C0=0000 C1=0000 C2=0000 C3=0000 
                 335:DATA_IN=1011 R0=1011 R1=1010 R2=1001 R3=1000 m0=00000000 m1=00000000 m2=00000000 m3=00000000 C0=0000 C1=0000 C2=0000 C3=0000 | OUT_sop1=0000000000 OUT_sop2=0000000000
The Test failed at time             22364290. | Output Obtained = 0000000000 | Expected Output = 0001011010 
$finish called from file "sop_tb.sv", line 98.
$finish at simulation time             22364290
           V C S   S i m u l a t i o n   R e p o r t 
Time: 22364290 ns
CPU Time:      3.260 seconds;       Data structure size:   0.0Mb
Sat Apr  3 18:41:03 2021
