lab9_final_submit/fifo_FWFT.log
Command: /home/users9/jp581081/526LSP21/LAB9/./simv -l fifo_FWFT.log
Chronologic VCS simulator copyright 1991-2017
Contains Synopsys proprietary information.
Compiler version N-2017.12-SP2-2_Full64; Runtime version N-2017.12-SP2-2_Full64;  May  1 18:13 2021
VCD+ Writer N-2017.12-SP2-2_Full64 Copyright (c) 1991-2017 by Synopsys Inc.
                   0:rst_n=x, data_in=  1, wr_en=0, almost_full=0, full=0, overflow=x, rd_en=0 data_out=  0, valid=x, almost_empty=1, empty=1, underflow=x, count= 0
                  10:rst_n=x, data_in=  1, wr_en=0, almost_full=0, full=0, overflow=0, rd_en=0 data_out=  0, valid=0, almost_empty=1, empty=1, underflow=0, count= 0
                  20:rst_n=x, data_in=  2, wr_en=1, almost_full=0, full=0, overflow=0, rd_en=0 data_out=  0, valid=0, almost_empty=1, empty=1, underflow=0, count= 0
                  30:rst_n=x, data_in=  2, wr_en=1, almost_full=0, full=0, overflow=0, rd_en=0 data_out=  0, valid=0, almost_empty=1, empty=0, underflow=0, count= 1
                  40:rst_n=x, data_in=  3, wr_en=1, almost_full=0, full=0, overflow=0, rd_en=0 data_out=  0, valid=0, almost_empty=1, empty=0, underflow=0, count= 1
                  50:rst_n=x, data_in=  3, wr_en=1, almost_full=0, full=0, overflow=0, rd_en=0 data_out=  2, valid=0, almost_empty=1, empty=0, underflow=0, count= 2
                  60:rst_n=x, data_in=  4, wr_en=1, almost_full=0, full=0, overflow=0, rd_en=0 data_out=  2, valid=0, almost_empty=1, empty=0, underflow=0, count= 2
                  70:rst_n=x, data_in=  4, wr_en=1, almost_full=0, full=0, overflow=0, rd_en=0 data_out=  2, valid=0, almost_empty=0, empty=0, underflow=0, count= 3
                  80:rst_n=x, data_in=  5, wr_en=1, almost_full=0, full=0, overflow=0, rd_en=0 data_out=  2, valid=0, almost_empty=0, empty=0, underflow=0, count= 3
                  90:rst_n=x, data_in=  5, wr_en=1, almost_full=0, full=0, overflow=0, rd_en=0 data_out=  2, valid=0, almost_empty=0, empty=0, underflow=0, count= 4
                 100:rst_n=x, data_in=  6, wr_en=1, almost_full=0, full=0, overflow=0, rd_en=0 data_out=  2, valid=0, almost_empty=0, empty=0, underflow=0, count= 4
                 110:rst_n=x, data_in=  6, wr_en=1, almost_full=0, full=0, overflow=0, rd_en=0 data_out=  2, valid=0, almost_empty=0, empty=0, underflow=0, count= 5
                 120:rst_n=x, data_in=  7, wr_en=1, almost_full=0, full=0, overflow=0, rd_en=0 data_out=  2, valid=0, almost_empty=0, empty=0, underflow=0, count= 5
                 130:rst_n=x, data_in=  7, wr_en=1, almost_full=0, full=0, overflow=0, rd_en=0 data_out=  2, valid=0, almost_empty=0, empty=0, underflow=0, count= 6
                 140:rst_n=x, data_in=  8, wr_en=1, almost_full=0, full=0, overflow=0, rd_en=0 data_out=  2, valid=0, almost_empty=0, empty=0, underflow=0, count= 6
                 150:rst_n=x, data_in=  8, wr_en=1, almost_full=0, full=0, overflow=0, rd_en=0 data_out=  2, valid=0, almost_empty=0, empty=0, underflow=0, count= 7
                 160:rst_n=x, data_in=  9, wr_en=1, almost_full=0, full=0, overflow=0, rd_en=0 data_out=  2, valid=0, almost_empty=0, empty=0, underflow=0, count= 7
                 170:rst_n=x, data_in=  9, wr_en=1, almost_full=0, full=0, overflow=0, rd_en=0 data_out=  2, valid=0, almost_empty=0, empty=0, underflow=0, count= 8
                 180:rst_n=x, data_in= 10, wr_en=1, almost_full=0, full=0, overflow=0, rd_en=0 data_out=  2, valid=0, almost_empty=0, empty=0, underflow=0, count= 8
                 190:rst_n=x, data_in= 10, wr_en=1, almost_full=0, full=0, overflow=0, rd_en=0 data_out=  2, valid=0, almost_empty=0, empty=0, underflow=0, count= 9
                 200:rst_n=x, data_in= 11, wr_en=1, almost_full=0, full=0, overflow=0, rd_en=0 data_out=  2, valid=0, almost_empty=0, empty=0, underflow=0, count= 9
                 210:rst_n=x, data_in= 11, wr_en=1, almost_full=0, full=0, overflow=0, rd_en=0 data_out=  2, valid=0, almost_empty=0, empty=0, underflow=0, count=10
                 220:rst_n=x, data_in= 12, wr_en=1, almost_full=0, full=0, overflow=0, rd_en=0 data_out=  2, valid=0, almost_empty=0, empty=0, underflow=0, count=10
                 230:rst_n=x, data_in= 12, wr_en=1, almost_full=0, full=0, overflow=0, rd_en=0 data_out=  2, valid=0, almost_empty=0, empty=0, underflow=0, count=11
                 240:rst_n=x, data_in= 13, wr_en=1, almost_full=0, full=0, overflow=0, rd_en=0 data_out=  2, valid=0, almost_empty=0, empty=0, underflow=0, count=11
                 250:rst_n=x, data_in= 13, wr_en=1, almost_full=0, full=0, overflow=0, rd_en=0 data_out=  2, valid=0, almost_empty=0, empty=0, underflow=0, count=12
                 260:rst_n=x, data_in= 14, wr_en=1, almost_full=0, full=0, overflow=0, rd_en=0 data_out=  2, valid=0, almost_empty=0, empty=0, underflow=0, count=12
                 270:rst_n=x, data_in= 14, wr_en=1, almost_full=0, full=0, overflow=0, rd_en=0 data_out=  2, valid=0, almost_empty=0, empty=0, underflow=0, count=13
                 280:rst_n=x, data_in= 15, wr_en=1, almost_full=0, full=0, overflow=0, rd_en=0 data_out=  2, valid=0, almost_empty=0, empty=0, underflow=0, count=13
                 290:rst_n=x, data_in= 15, wr_en=1, almost_full=0, full=0, overflow=0, rd_en=0 data_out=  2, valid=0, almost_empty=0, empty=0, underflow=0, count=14
                 300:rst_n=x, data_in= 16, wr_en=1, almost_full=0, full=0, overflow=0, rd_en=0 data_out=  2, valid=0, almost_empty=0, empty=0, underflow=0, count=14
                 310:rst_n=x, data_in= 16, wr_en=1, almost_full=0, full=0, overflow=0, rd_en=0 data_out=  2, valid=0, almost_empty=0, empty=0, underflow=0, count=15
                 320:rst_n=x, data_in= 17, wr_en=1, almost_full=0, full=0, overflow=0, rd_en=0 data_out=  2, valid=0, almost_empty=0, empty=0, underflow=0, count=15
                 330:rst_n=x, data_in= 17, wr_en=1, almost_full=0, full=0, overflow=0, rd_en=0 data_out=  2, valid=0, almost_empty=0, empty=0, underflow=0, count=16
                 340:rst_n=x, data_in= 18, wr_en=1, almost_full=0, full=0, overflow=0, rd_en=0 data_out=  2, valid=0, almost_empty=0, empty=0, underflow=0, count=16
                 350:rst_n=x, data_in= 18, wr_en=1, almost_full=0, full=0, overflow=0, rd_en=0 data_out=  2, valid=0, almost_empty=0, empty=0, underflow=0, count=17
                 360:rst_n=x, data_in= 19, wr_en=1, almost_full=0, full=0, overflow=0, rd_en=0 data_out=  2, valid=0, almost_empty=0, empty=0, underflow=0, count=17
                 370:rst_n=x, data_in= 19, wr_en=1, almost_full=0, full=0, overflow=0, rd_en=0 data_out=  2, valid=0, almost_empty=0, empty=0, underflow=0, count=18
                 380:rst_n=x, data_in= 20, wr_en=1, almost_full=0, full=0, overflow=0, rd_en=0 data_out=  2, valid=0, almost_empty=0, empty=0, underflow=0, count=18
                 390:rst_n=x, data_in= 20, wr_en=1, almost_full=0, full=0, overflow=0, rd_en=0 data_out=  2, valid=0, almost_empty=0, empty=0, underflow=0, count=19
                 400:rst_n=x, data_in= 21, wr_en=1, almost_full=0, full=0, overflow=0, rd_en=0 data_out=  2, valid=0, almost_empty=0, empty=0, underflow=0, count=19
                 410:rst_n=x, data_in= 21, wr_en=1, almost_full=0, full=0, overflow=0, rd_en=0 data_out=  2, valid=0, almost_empty=0, empty=0, underflow=0, count=20
                 420:rst_n=x, data_in= 22, wr_en=1, almost_full=0, full=0, overflow=0, rd_en=0 data_out=  2, valid=0, almost_empty=0, empty=0, underflow=0, count=20
                 430:rst_n=x, data_in= 22, wr_en=1, almost_full=0, full=0, overflow=0, rd_en=0 data_out=  2, valid=0, almost_empty=0, empty=0, underflow=0, count=21
                 440:rst_n=x, data_in= 23, wr_en=1, almost_full=0, full=0, overflow=0, rd_en=0 data_out=  2, valid=0, almost_empty=0, empty=0, underflow=0, count=21
                 450:rst_n=x, data_in= 23, wr_en=1, almost_full=0, full=0, overflow=0, rd_en=0 data_out=  2, valid=0, almost_empty=0, empty=0, underflow=0, count=22
                 460:rst_n=x, data_in= 24, wr_en=1, almost_full=0, full=0, overflow=0, rd_en=0 data_out=  2, valid=0, almost_empty=0, empty=0, underflow=0, count=22
                 470:rst_n=x, data_in= 24, wr_en=1, almost_full=0, full=0, overflow=0, rd_en=0 data_out=  2, valid=0, almost_empty=0, empty=0, underflow=0, count=23
                 480:rst_n=x, data_in= 25, wr_en=1, almost_full=0, full=0, overflow=0, rd_en=0 data_out=  2, valid=0, almost_empty=0, empty=0, underflow=0, count=23
                 490:rst_n=x, data_in= 25, wr_en=1, almost_full=0, full=0, overflow=0, rd_en=0 data_out=  2, valid=0, almost_empty=0, empty=0, underflow=0, count=24
                 500:rst_n=x, data_in= 26, wr_en=1, almost_full=0, full=0, overflow=0, rd_en=0 data_out=  2, valid=0, almost_empty=0, empty=0, underflow=0, count=24
                 510:rst_n=x, data_in= 26, wr_en=1, almost_full=0, full=0, overflow=0, rd_en=0 data_out=  2, valid=0, almost_empty=0, empty=0, underflow=0, count=25
                 520:rst_n=x, data_in= 27, wr_en=1, almost_full=0, full=0, overflow=0, rd_en=0 data_out=  2, valid=0, almost_empty=0, empty=0, underflow=0, count=25
                 530:rst_n=x, data_in= 27, wr_en=1, almost_full=0, full=0, overflow=0, rd_en=0 data_out=  2, valid=0, almost_empty=0, empty=0, underflow=0, count=26
                 540:rst_n=x, data_in= 28, wr_en=1, almost_full=0, full=0, overflow=0, rd_en=0 data_out=  2, valid=0, almost_empty=0, empty=0, underflow=0, count=26
                 550:rst_n=x, data_in= 28, wr_en=1, almost_full=0, full=0, overflow=0, rd_en=0 data_out=  2, valid=0, almost_empty=0, empty=0, underflow=0, count=27
                 560:rst_n=x, data_in= 29, wr_en=1, almost_full=0, full=0, overflow=0, rd_en=0 data_out=  2, valid=0, almost_empty=0, empty=0, underflow=0, count=27
                 570:rst_n=x, data_in= 29, wr_en=1, almost_full=0, full=0, overflow=0, rd_en=0 data_out=  2, valid=0, almost_empty=0, empty=0, underflow=0, count=28
                 580:rst_n=x, data_in= 30, wr_en=1, almost_full=0, full=0, overflow=0, rd_en=0 data_out=  2, valid=0, almost_empty=0, empty=0, underflow=0, count=28
                 590:rst_n=x, data_in= 30, wr_en=1, almost_full=0, full=0, overflow=0, rd_en=0 data_out=  2, valid=0, almost_empty=0, empty=0, underflow=0, count=29
                 600:rst_n=x, data_in= 31, wr_en=1, almost_full=0, full=0, overflow=0, rd_en=0 data_out=  2, valid=0, almost_empty=0, empty=0, underflow=0, count=29
                 610:rst_n=x, data_in= 31, wr_en=1, almost_full=1, full=0, overflow=0, rd_en=0 data_out=  2, valid=0, almost_empty=0, empty=0, underflow=0, count=30
                 620:rst_n=x, data_in= 32, wr_en=1, almost_full=1, full=0, overflow=0, rd_en=0 data_out=  2, valid=0, almost_empty=0, empty=0, underflow=0, count=30
                 630:rst_n=x, data_in= 32, wr_en=1, almost_full=1, full=0, overflow=0, rd_en=0 data_out=  2, valid=0, almost_empty=0, empty=0, underflow=0, count=31
                 640:rst_n=x, data_in= 33, wr_en=1, almost_full=1, full=0, overflow=0, rd_en=0 data_out=  2, valid=0, almost_empty=0, empty=0, underflow=0, count=31
                 650:rst_n=x, data_in= 33, wr_en=1, almost_full=1, full=1, overflow=0, rd_en=0 data_out=  2, valid=0, almost_empty=0, empty=0, underflow=0, count=32
                 660:rst_n=x, data_in= 34, wr_en=1, almost_full=1, full=1, overflow=0, rd_en=0 data_out=  2, valid=0, almost_empty=0, empty=0, underflow=0, count=32
                 670:rst_n=x, data_in= 34, wr_en=1, almost_full=1, full=1, overflow=1, rd_en=0 data_out=  2, valid=0, almost_empty=0, empty=0, underflow=0, count=32
                 680:rst_n=x, data_in= 35, wr_en=0, almost_full=1, full=1, overflow=1, rd_en=0 data_out=  2, valid=0, almost_empty=0, empty=0, underflow=0, count=32
                 690:rst_n=x, data_in= 35, wr_en=0, almost_full=1, full=1, overflow=0, rd_en=0 data_out=  2, valid=0, almost_empty=0, empty=0, underflow=0, count=32
                 700:rst_n=x, data_in= 36, wr_en=0, almost_full=1, full=1, overflow=0, rd_en=1 data_out=  2, valid=0, almost_empty=0, empty=0, underflow=0, count=32
                 710:rst_n=x, data_in= 36, wr_en=0, almost_full=1, full=0, overflow=0, rd_en=1 data_out=  3, valid=1, almost_empty=0, empty=0, underflow=0, count=31
                 720:rst_n=x, data_in= 37, wr_en=0, almost_full=1, full=0, overflow=0, rd_en=1 data_out=  3, valid=1, almost_empty=0, empty=0, underflow=0, count=31
                 730:rst_n=x, data_in= 37, wr_en=0, almost_full=1, full=0, overflow=0, rd_en=1 data_out=  4, valid=1, almost_empty=0, empty=0, underflow=0, count=30
                 740:rst_n=x, data_in= 38, wr_en=0, almost_full=1, full=0, overflow=0, rd_en=1 data_out=  4, valid=1, almost_empty=0, empty=0, underflow=0, count=30
                 750:rst_n=x, data_in= 38, wr_en=0, almost_full=0, full=0, overflow=0, rd_en=1 data_out=  5, valid=1, almost_empty=0, empty=0, underflow=0, count=29
                 760:rst_n=x, data_in= 39, wr_en=0, almost_full=0, full=0, overflow=0, rd_en=1 data_out=  5, valid=1, almost_empty=0, empty=0, underflow=0, count=29
                 770:rst_n=x, data_in= 39, wr_en=0, almost_full=0, full=0, overflow=0, rd_en=1 data_out=  6, valid=1, almost_empty=0, empty=0, underflow=0, count=28
                 780:rst_n=x, data_in= 40, wr_en=0, almost_full=0, full=0, overflow=0, rd_en=1 data_out=  6, valid=1, almost_empty=0, empty=0, underflow=0, count=28
                 790:rst_n=x, data_in= 40, wr_en=0, almost_full=0, full=0, overflow=0, rd_en=1 data_out=  7, valid=1, almost_empty=0, empty=0, underflow=0, count=27
                 800:rst_n=x, data_in= 41, wr_en=0, almost_full=0, full=0, overflow=0, rd_en=1 data_out=  7, valid=1, almost_empty=0, empty=0, underflow=0, count=27
                 810:rst_n=x, data_in= 41, wr_en=0, almost_full=0, full=0, overflow=0, rd_en=1 data_out=  8, valid=1, almost_empty=0, empty=0, underflow=0, count=26
                 820:rst_n=x, data_in= 42, wr_en=0, almost_full=0, full=0, overflow=0, rd_en=1 data_out=  8, valid=1, almost_empty=0, empty=0, underflow=0, count=26
                 830:rst_n=x, data_in= 42, wr_en=0, almost_full=0, full=0, overflow=0, rd_en=1 data_out=  9, valid=1, almost_empty=0, empty=0, underflow=0, count=25
                 840:rst_n=x, data_in= 43, wr_en=0, almost_full=0, full=0, overflow=0, rd_en=1 data_out=  9, valid=1, almost_empty=0, empty=0, underflow=0, count=25
                 850:rst_n=x, data_in= 43, wr_en=0, almost_full=0, full=0, overflow=0, rd_en=1 data_out= 10, valid=1, almost_empty=0, empty=0, underflow=0, count=24
                 860:rst_n=x, data_in= 44, wr_en=0, almost_full=0, full=0, overflow=0, rd_en=1 data_out= 10, valid=1, almost_empty=0, empty=0, underflow=0, count=24
                 870:rst_n=x, data_in= 44, wr_en=0, almost_full=0, full=0, overflow=0, rd_en=1 data_out= 11, valid=1, almost_empty=0, empty=0, underflow=0, count=23
                 880:rst_n=x, data_in= 45, wr_en=0, almost_full=0, full=0, overflow=0, rd_en=1 data_out= 11, valid=1, almost_empty=0, empty=0, underflow=0, count=23
                 890:rst_n=x, data_in= 45, wr_en=0, almost_full=0, full=0, overflow=0, rd_en=1 data_out= 12, valid=1, almost_empty=0, empty=0, underflow=0, count=22
                 900:rst_n=x, data_in= 46, wr_en=0, almost_full=0, full=0, overflow=0, rd_en=1 data_out= 12, valid=1, almost_empty=0, empty=0, underflow=0, count=22
                 910:rst_n=x, data_in= 46, wr_en=0, almost_full=0, full=0, overflow=0, rd_en=1 data_out= 13, valid=1, almost_empty=0, empty=0, underflow=0, count=21
                 920:rst_n=x, data_in= 47, wr_en=0, almost_full=0, full=0, overflow=0, rd_en=1 data_out= 13, valid=1, almost_empty=0, empty=0, underflow=0, count=21
                 930:rst_n=x, data_in= 47, wr_en=0, almost_full=0, full=0, overflow=0, rd_en=1 data_out= 14, valid=1, almost_empty=0, empty=0, underflow=0, count=20
                 940:rst_n=x, data_in= 48, wr_en=0, almost_full=0, full=0, overflow=0, rd_en=1 data_out= 14, valid=1, almost_empty=0, empty=0, underflow=0, count=20
                 950:rst_n=x, data_in= 48, wr_en=0, almost_full=0, full=0, overflow=0, rd_en=1 data_out= 15, valid=1, almost_empty=0, empty=0, underflow=0, count=19
                 960:rst_n=x, data_in= 49, wr_en=0, almost_full=0, full=0, overflow=0, rd_en=1 data_out= 15, valid=1, almost_empty=0, empty=0, underflow=0, count=19
                 970:rst_n=x, data_in= 49, wr_en=0, almost_full=0, full=0, overflow=0, rd_en=1 data_out= 16, valid=1, almost_empty=0, empty=0, underflow=0, count=18
                 980:rst_n=x, data_in= 50, wr_en=0, almost_full=0, full=0, overflow=0, rd_en=1 data_out= 16, valid=1, almost_empty=0, empty=0, underflow=0, count=18
                 990:rst_n=x, data_in= 50, wr_en=0, almost_full=0, full=0, overflow=0, rd_en=1 data_out= 17, valid=1, almost_empty=0, empty=0, underflow=0, count=17
                1000:rst_n=x, data_in= 51, wr_en=0, almost_full=0, full=0, overflow=0, rd_en=1 data_out= 17, valid=1, almost_empty=0, empty=0, underflow=0, count=17
                1010:rst_n=x, data_in= 51, wr_en=0, almost_full=0, full=0, overflow=0, rd_en=1 data_out= 18, valid=1, almost_empty=0, empty=0, underflow=0, count=16
                1020:rst_n=x, data_in= 52, wr_en=0, almost_full=0, full=0, overflow=0, rd_en=1 data_out= 18, valid=1, almost_empty=0, empty=0, underflow=0, count=16
                1030:rst_n=x, data_in= 52, wr_en=0, almost_full=0, full=0, overflow=0, rd_en=1 data_out= 19, valid=1, almost_empty=0, empty=0, underflow=0, count=15
                1040:rst_n=x, data_in= 53, wr_en=0, almost_full=0, full=0, overflow=0, rd_en=1 data_out= 19, valid=1, almost_empty=0, empty=0, underflow=0, count=15
                1050:rst_n=x, data_in= 53, wr_en=0, almost_full=0, full=0, overflow=0, rd_en=1 data_out= 20, valid=1, almost_empty=0, empty=0, underflow=0, count=14
                1060:rst_n=x, data_in= 54, wr_en=0, almost_full=0, full=0, overflow=0, rd_en=1 data_out= 20, valid=1, almost_empty=0, empty=0, underflow=0, count=14
                1070:rst_n=x, data_in= 54, wr_en=0, almost_full=0, full=0, overflow=0, rd_en=1 data_out= 21, valid=1, almost_empty=0, empty=0, underflow=0, count=13
                1080:rst_n=x, data_in= 55, wr_en=0, almost_full=0, full=0, overflow=0, rd_en=1 data_out= 21, valid=1, almost_empty=0, empty=0, underflow=0, count=13
                1090:rst_n=x, data_in= 55, wr_en=0, almost_full=0, full=0, overflow=0, rd_en=1 data_out= 22, valid=1, almost_empty=0, empty=0, underflow=0, count=12
                1100:rst_n=x, data_in= 56, wr_en=0, almost_full=0, full=0, overflow=0, rd_en=1 data_out= 22, valid=1, almost_empty=0, empty=0, underflow=0, count=12
                1110:rst_n=x, data_in= 56, wr_en=0, almost_full=0, full=0, overflow=0, rd_en=1 data_out= 23, valid=1, almost_empty=0, empty=0, underflow=0, count=11
                1120:rst_n=x, data_in= 57, wr_en=0, almost_full=0, full=0, overflow=0, rd_en=1 data_out= 23, valid=1, almost_empty=0, empty=0, underflow=0, count=11
                1130:rst_n=x, data_in= 57, wr_en=0, almost_full=0, full=0, overflow=0, rd_en=1 data_out= 24, valid=1, almost_empty=0, empty=0, underflow=0, count=10
                1140:rst_n=x, data_in= 58, wr_en=0, almost_full=0, full=0, overflow=0, rd_en=1 data_out= 24, valid=1, almost_empty=0, empty=0, underflow=0, count=10
                1150:rst_n=x, data_in= 58, wr_en=0, almost_full=0, full=0, overflow=0, rd_en=1 data_out= 25, valid=1, almost_empty=0, empty=0, underflow=0, count= 9
                1160:rst_n=x, data_in= 59, wr_en=0, almost_full=0, full=0, overflow=0, rd_en=1 data_out= 25, valid=1, almost_empty=0, empty=0, underflow=0, count= 9
                1170:rst_n=x, data_in= 59, wr_en=0, almost_full=0, full=0, overflow=0, rd_en=1 data_out= 26, valid=1, almost_empty=0, empty=0, underflow=0, count= 8
                1180:rst_n=x, data_in= 60, wr_en=0, almost_full=0, full=0, overflow=0, rd_en=1 data_out= 26, valid=1, almost_empty=0, empty=0, underflow=0, count= 8
                1190:rst_n=x, data_in= 60, wr_en=0, almost_full=0, full=0, overflow=0, rd_en=1 data_out= 27, valid=1, almost_empty=0, empty=0, underflow=0, count= 7
                1200:rst_n=x, data_in= 61, wr_en=0, almost_full=0, full=0, overflow=0, rd_en=1 data_out= 27, valid=1, almost_empty=0, empty=0, underflow=0, count= 7
                1210:rst_n=x, data_in= 61, wr_en=0, almost_full=0, full=0, overflow=0, rd_en=1 data_out= 28, valid=1, almost_empty=0, empty=0, underflow=0, count= 6
                1220:rst_n=x, data_in= 62, wr_en=0, almost_full=0, full=0, overflow=0, rd_en=1 data_out= 28, valid=1, almost_empty=0, empty=0, underflow=0, count= 6
                1230:rst_n=x, data_in= 62, wr_en=0, almost_full=0, full=0, overflow=0, rd_en=1 data_out= 29, valid=1, almost_empty=0, empty=0, underflow=0, count= 5
                1240:rst_n=x, data_in= 63, wr_en=0, almost_full=0, full=0, overflow=0, rd_en=1 data_out= 29, valid=1, almost_empty=0, empty=0, underflow=0, count= 5
                1250:rst_n=x, data_in= 63, wr_en=0, almost_full=0, full=0, overflow=0, rd_en=1 data_out= 30, valid=1, almost_empty=0, empty=0, underflow=0, count= 4
                1260:rst_n=x, data_in= 64, wr_en=0, almost_full=0, full=0, overflow=0, rd_en=1 data_out= 30, valid=1, almost_empty=0, empty=0, underflow=0, count= 4
                1270:rst_n=x, data_in= 64, wr_en=0, almost_full=0, full=0, overflow=0, rd_en=1 data_out= 31, valid=1, almost_empty=0, empty=0, underflow=0, count= 3
                1280:rst_n=x, data_in= 65, wr_en=0, almost_full=0, full=0, overflow=0, rd_en=1 data_out= 31, valid=1, almost_empty=0, empty=0, underflow=0, count= 3
                1290:rst_n=x, data_in= 65, wr_en=0, almost_full=0, full=0, overflow=0, rd_en=1 data_out= 32, valid=1, almost_empty=1, empty=0, underflow=0, count= 2
                1300:rst_n=x, data_in= 66, wr_en=0, almost_full=0, full=0, overflow=0, rd_en=1 data_out= 32, valid=1, almost_empty=1, empty=0, underflow=0, count= 2
                1310:rst_n=x, data_in= 66, wr_en=0, almost_full=0, full=0, overflow=0, rd_en=1 data_out= 33, valid=1, almost_empty=1, empty=0, underflow=0, count= 1
                1320:rst_n=x, data_in= 67, wr_en=0, almost_full=0, full=0, overflow=0, rd_en=1 data_out= 33, valid=1, almost_empty=1, empty=0, underflow=0, count= 1
                1330:rst_n=x, data_in= 67, wr_en=0, almost_full=0, full=0, overflow=0, rd_en=1 data_out=  0, valid=1, almost_empty=1, empty=1, underflow=0, count= 0
                1340:rst_n=x, data_in= 68, wr_en=0, almost_full=0, full=0, overflow=0, rd_en=1 data_out=  0, valid=1, almost_empty=1, empty=1, underflow=0, count= 0
                1350:rst_n=x, data_in= 68, wr_en=0, almost_full=0, full=0, overflow=0, rd_en=1 data_out=  0, valid=0, almost_empty=1, empty=1, underflow=1, count= 0
                1360:rst_n=x, data_in= 69, wr_en=0, almost_full=0, full=0, overflow=0, rd_en=0 data_out=  0, valid=0, almost_empty=1, empty=1, underflow=1, count= 0
                1370:rst_n=x, data_in= 69, wr_en=0, almost_full=0, full=0, overflow=0, rd_en=0 data_out=  0, valid=0, almost_empty=1, empty=1, underflow=0, count= 0
                1380:rst_n=x, data_in= 70, wr_en=1, almost_full=0, full=0, overflow=0, rd_en=0 data_out=  0, valid=0, almost_empty=1, empty=1, underflow=0, count= 0
                1390:rst_n=x, data_in= 70, wr_en=1, almost_full=0, full=0, overflow=0, rd_en=0 data_out=  0, valid=0, almost_empty=1, empty=0, underflow=0, count= 1
                1400:rst_n=x, data_in= 71, wr_en=1, almost_full=0, full=0, overflow=0, rd_en=0 data_out=  0, valid=0, almost_empty=1, empty=0, underflow=0, count= 1
                1410:rst_n=x, data_in= 71, wr_en=1, almost_full=0, full=0, overflow=0, rd_en=0 data_out= 70, valid=0, almost_empty=1, empty=0, underflow=0, count= 2
                1420:rst_n=x, data_in= 72, wr_en=1, almost_full=0, full=0, overflow=0, rd_en=0 data_out= 70, valid=0, almost_empty=1, empty=0, underflow=0, count= 2
                1430:rst_n=x, data_in= 72, wr_en=1, almost_full=0, full=0, overflow=0, rd_en=0 data_out= 70, valid=0, almost_empty=0, empty=0, underflow=0, count= 3
                1440:rst_n=x, data_in= 73, wr_en=1, almost_full=0, full=0, overflow=0, rd_en=0 data_out= 70, valid=0, almost_empty=0, empty=0, underflow=0, count= 3
                1450:rst_n=x, data_in= 73, wr_en=1, almost_full=0, full=0, overflow=0, rd_en=0 data_out= 70, valid=0, almost_empty=0, empty=0, underflow=0, count= 4
                1460:rst_n=x, data_in= 74, wr_en=1, almost_full=0, full=0, overflow=0, rd_en=0 data_out= 70, valid=0, almost_empty=0, empty=0, underflow=0, count= 4
                1470:rst_n=x, data_in= 74, wr_en=1, almost_full=0, full=0, overflow=0, rd_en=0 data_out= 70, valid=0, almost_empty=0, empty=0, underflow=0, count= 5
                1480:rst_n=x, data_in= 75, wr_en=1, almost_full=0, full=0, overflow=0, rd_en=0 data_out= 70, valid=0, almost_empty=0, empty=0, underflow=0, count= 5
                1490:rst_n=x, data_in= 75, wr_en=1, almost_full=0, full=0, overflow=0, rd_en=0 data_out= 70, valid=0, almost_empty=0, empty=0, underflow=0, count= 6
                1500:rst_n=x, data_in= 76, wr_en=1, almost_full=0, full=0, overflow=0, rd_en=0 data_out= 70, valid=0, almost_empty=0, empty=0, underflow=0, count= 6
                1510:rst_n=x, data_in= 76, wr_en=1, almost_full=0, full=0, overflow=0, rd_en=0 data_out= 70, valid=0, almost_empty=0, empty=0, underflow=0, count= 7
                1520:rst_n=x, data_in= 77, wr_en=1, almost_full=0, full=0, overflow=0, rd_en=0 data_out= 70, valid=0, almost_empty=0, empty=0, underflow=0, count= 7
                1530:rst_n=x, data_in= 77, wr_en=1, almost_full=0, full=0, overflow=0, rd_en=0 data_out= 70, valid=0, almost_empty=0, empty=0, underflow=0, count= 8
                1540:rst_n=x, data_in= 78, wr_en=1, almost_full=0, full=0, overflow=0, rd_en=0 data_out= 70, valid=0, almost_empty=0, empty=0, underflow=0, count= 8
                1550:rst_n=x, data_in= 78, wr_en=1, almost_full=0, full=0, overflow=0, rd_en=0 data_out= 70, valid=0, almost_empty=0, empty=0, underflow=0, count= 9
                1560:rst_n=x, data_in= 79, wr_en=1, almost_full=0, full=0, overflow=0, rd_en=0 data_out= 70, valid=0, almost_empty=0, empty=0, underflow=0, count= 9
                1570:rst_n=x, data_in= 79, wr_en=1, almost_full=0, full=0, overflow=0, rd_en=0 data_out= 70, valid=0, almost_empty=0, empty=0, underflow=0, count=10
                1580:rst_n=x, data_in= 80, wr_en=1, almost_full=0, full=0, overflow=0, rd_en=0 data_out= 70, valid=0, almost_empty=0, empty=0, underflow=0, count=10
                1590:rst_n=x, data_in= 80, wr_en=1, almost_full=0, full=0, overflow=0, rd_en=0 data_out= 70, valid=0, almost_empty=0, empty=0, underflow=0, count=11
                1600:rst_n=x, data_in= 81, wr_en=1, almost_full=0, full=0, overflow=0, rd_en=0 data_out= 70, valid=0, almost_empty=0, empty=0, underflow=0, count=11
                1610:rst_n=x, data_in= 81, wr_en=1, almost_full=0, full=0, overflow=0, rd_en=0 data_out= 70, valid=0, almost_empty=0, empty=0, underflow=0, count=12
                1620:rst_n=x, data_in= 82, wr_en=1, almost_full=0, full=0, overflow=0, rd_en=0 data_out= 70, valid=0, almost_empty=0, empty=0, underflow=0, count=12
                1630:rst_n=x, data_in= 82, wr_en=1, almost_full=0, full=0, overflow=0, rd_en=0 data_out= 70, valid=0, almost_empty=0, empty=0, underflow=0, count=13
                1640:rst_n=x, data_in= 83, wr_en=1, almost_full=0, full=0, overflow=0, rd_en=0 data_out= 70, valid=0, almost_empty=0, empty=0, underflow=0, count=13
                1650:rst_n=x, data_in= 83, wr_en=1, almost_full=0, full=0, overflow=0, rd_en=0 data_out= 70, valid=0, almost_empty=0, empty=0, underflow=0, count=14
                1660:rst_n=x, data_in= 84, wr_en=1, almost_full=0, full=0, overflow=0, rd_en=0 data_out= 70, valid=0, almost_empty=0, empty=0, underflow=0, count=14
                1670:rst_n=x, data_in= 84, wr_en=1, almost_full=0, full=0, overflow=0, rd_en=0 data_out= 70, valid=0, almost_empty=0, empty=0, underflow=0, count=15
                1680:rst_n=x, data_in= 85, wr_en=1, almost_full=0, full=0, overflow=0, rd_en=0 data_out= 70, valid=0, almost_empty=0, empty=0, underflow=0, count=15
                1690:rst_n=x, data_in= 85, wr_en=1, almost_full=0, full=0, overflow=0, rd_en=0 data_out= 70, valid=0, almost_empty=0, empty=0, underflow=0, count=16
                1700:rst_n=x, data_in= 86, wr_en=1, almost_full=0, full=0, overflow=0, rd_en=0 data_out= 70, valid=0, almost_empty=0, empty=0, underflow=0, count=16
                1710:rst_n=x, data_in= 86, wr_en=1, almost_full=0, full=0, overflow=0, rd_en=0 data_out= 70, valid=0, almost_empty=0, empty=0, underflow=0, count=17
                1720:rst_n=x, data_in= 87, wr_en=1, almost_full=0, full=0, overflow=0, rd_en=0 data_out= 70, valid=0, almost_empty=0, empty=0, underflow=0, count=17
                1730:rst_n=x, data_in= 87, wr_en=1, almost_full=0, full=0, overflow=0, rd_en=0 data_out= 70, valid=0, almost_empty=0, empty=0, underflow=0, count=18
                1740:rst_n=x, data_in= 88, wr_en=1, almost_full=0, full=0, overflow=0, rd_en=0 data_out= 70, valid=0, almost_empty=0, empty=0, underflow=0, count=18
